﻿Zadanie	Wynik	Termin dostarczenia	Id kategorii
Forum #1	0.0/1.0	2014-03-12T22:59:59Z	640026
Forum #2	0.0/1.0	2014-03-19T22:59:59Z	640026
Forum #3	0.0/1.0	2014-03-26T22:59:00Z	640026
Forum #4	0.0/1.0	2014-04-02T21:59:00Z	640026
Forum #5	0.0/1.0	2014-04-09T21:59:00Z	640026
Forum #6	0.0/1.0	2014-04-16T21:59:59Z	640026
Forum #7	0.0/1.0	2014-04-23T21:59:59Z	640026
Forum #8	0.0/1.0	2014-05-07T21:59:00Z	640026
Forum #9	0.0/1.0	2014-05-14T21:59:59Z	640026
Forum #A	0.0/1.0	2014-05-21T21:59:59Z	640026
Forum #B	0.0/1.0	2014-05-28T21:59:59Z	640026
Forum #C	0.0/1.0	2014-06-04T21:59:59Z	640026
Propozycje pytań na egzamin teoretyczny	1.0/1.0	2014-06-05T21:59:00Z	640026
Propozycje zadań na egzamin praktyczny	1.0/1.0	2014-06-08T21:59:00Z	640026
Forum #D	1.0/1.0	2014-06-11T21:59:59Z	640026
Aktywność na wykładzie	0.0/7.0	2014-06-19T21:59:00Z	640026
Zadanie laboratoryjne #1	2.0/2.0	2014-03-06T12:15:00Z	640027
Zadanie laboratoryjne #2	2.0/2.0	2014-03-13T12:15:00Z	640027
Zadanie laboratoryjne #3	0.0/2.0	2014-03-20T12:15:00Z	640027
Zadanie laboratoryjne #4	1.0/2.0	2014-03-27T12:15:00Z	640027
Zadanie laboratoryjne #5	1.0/2.0	2014-04-03T11:15:00Z	640027
Zadanie laboratoryjne #6	2.0/2.0	2014-04-10T11:15:00Z	640027
Zadanie laboratoryjne #7	0.0/2.0	2014-04-17T11:15:00Z	640027
Zadanie laboratoryjne #8	2.0/2.0	2014-04-24T11:15:00Z	640027
Zadanie laboratoryjne #9	1.0/2.0	2014-05-08T11:15:00Z	640027
Zadanie laboratoryjne #A	1.0/2.0	2014-05-15T11:15:00Z	640027
Zadanie laboratoryjne #B	2.0/2.0	2014-05-22T11:15:00Z	640027
Zadanie laboratoryjne #C	0.5/2.0	2014-05-29T11:30:00Z	640027
Poprawa	0.0/0.0	2014-06-05T16:00:00Z	640027
Część teoretyczna	15.225/20.0	2014-06-12T09:30:00Z	640039
Część praktyczna	0.0/10.0	2014-06-12T11:15:00Z	640039
Praca domowa #1	3.0/3.0	2014-03-09T11:00:00Z	652818
Praca domowa #2	3.0/3.0	2014-03-16T11:00:00Z	652818
Praca domowa #3	2.4/3.0	2014-03-23T19:00:00Z	652818
Praca domowa #4	3.0/3.0	2014-03-30T18:00:00Z	652818
Praca domowa #5	3.0/3.0	2014-04-06T18:00:00Z	652818
Praca domowa #6	3.0/3.0	2014-04-13T18:00:00Z	652818
Praca domowa #7	1.9/3.0	2014-04-22T10:00:00Z	652818
Praca domowa #8	3.0/3.0	2014-05-04T18:00:00Z	652818
Praca domowa #9	0.1/3.0	2014-05-11T18:00:00Z	652818
Praca domowa #A	0.0/3.0	2014-05-19T10:00:00Z	652818
Praca domowa #B	3.0/3.0	2014-05-25T18:00:00Z	652818
Praca domowa #C	2.0/3.0	2014-06-02T18:00:00Z	652818
