﻿Zadanie	Wynik	Termin dostarczenia	Id kategorii
Wybór tematu	0.0/0.0	2013-10-14T21:59:00Z	602590
Dokumentacja techniczna	9.0/10.0	2013-11-11T22:59:00Z	602590
Zadanie projektowe	22.0/30.0	2014-02-15T22:59:00Z	602590
Zadanie #0	3.0/3.0	2013-10-01T21:59:00Z	602591
Zadanie #1	3.0/3.0	2013-10-08T13:00:00Z	602591
Zadanie #2	1.0/3.0	2013-10-15T12:45:00Z	602591
Zadanie #3	2.0/3.0	2013-10-22T12:45:00Z	602591
Zadanie #4	2.0/3.0	2013-10-29T13:45:00Z	602591
Zadanie #5	3.0/3.0	2013-11-05T13:45:00Z	602591
Zadanie #6	1.0/3.0	2013-11-12T13:45:00Z	602591
Zadanie #7	0.0/3.0	2013-11-19T13:45:00Z	602591
Zadanie #9	3.0/3.0	2013-12-03T13:45:00Z	602591
Zadanie #A	3.0/3.0	2013-12-10T13:45:00Z	602591
Zadanie #B	3.0/3.0	2013-12-17T13:45:00Z	602591
Zadanie #C	0.0/3.0	2014-01-07T13:45:00Z	602591
Zadanie #D	0.0/3.0	2014-01-14T13:45:00Z	602591
Wejściówka #1	100.0/100.0	2013-10-08T14:30:00Z	602592
Wejściówka #2	100.0/100.0	2013-10-15T14:25:00Z	602592
Wejściówka #3	100.0/100.0	2013-10-22T11:30:00Z	602592
Wejściówka #4	100.0/100.0	2013-10-29T12:25:00Z	602592
Wejściówka #5	80.0/100.0	2013-11-05T12:25:00Z	602592
Wejściówka #6	100.0/100.0	2013-11-12T12:25:00Z	602592
Wejściówka #7	72.0/100.0	2013-11-19T12:25:00Z	602592
Wejściówka #9	100.0/100.0	2013-12-03T12:25:00Z	602592
Wejściówka #A	85.8333333333/100.0	2013-12-10T12:25:00Z	602592
Wejściówka #B	70.0/100.0	2013-12-17T12:25:00Z	602592
Wejściówka #C	22.5/100.0	2014-01-07T12:25:00Z	602592
Wejściówka #D	37.5/100.0	2014-01-14T12:35:00Z	602592
Forum #0	0.0/1.0	2013-10-07T21:59:00Z	602593
Forum #1	0.0/1.0	2013-10-11T21:59:59Z	602593
Forum #2	0.0/1.0	2013-10-18T21:59:00Z	602593
Forum #3	0.0/1.0	2013-10-25T21:59:59Z	602593
Forum #4	0.0/1.0	2013-11-01T22:59:59Z	602593
Forum #5	0.0/1.0	2013-11-08T22:59:59Z	602593
Forum #6	0.0/1.0	2013-11-15T22:59:59Z	602593
Forum #7	0.0/1.0	2013-11-22T22:59:59Z	602593
Forum #8	0.0/1.0	2013-11-29T22:59:59Z	602593
Forum #9	0.0/1.0	2013-12-06T22:59:59Z	602593
Forum #A	0.0/1.0	2013-12-13T22:59:00Z	602593
Forum #B	0.0/1.0	2013-12-20T22:59:00Z	602593
Forum #C	0.0/1.0	2014-01-10T22:59:59Z	602593
Forum #D	0.0/1.0	2014-01-17T22:59:59Z	602593
Forum #E	0.0/1.0	2014-01-20T22:59:59Z	602593
Aktywność na wykładzie	0.0/5.0	2014-01-21T17:30:00Z	602593
